@startuml

title Announce a character - Activity Diagram 


start

:Announce a character; 

:Choose the privilege;

if (Validate by the other players ?) then (yes)
  :Use your privilege;
  if (Resource stealing ?) then (yes)
        :Target a player;
        if (Proclaiming an immmunity ?) then (yes)
            if (Accept the proclamation ?) then (yes)
                :No resource given;
            else(no)
                if(Is the targeted player really this character ?)then(no)
                    :Block the character on the target player’s board;
                    :Retrieve the resource;
                else(yes)
                    :Target player wins the game;
                endif
            endif
        else(no)
            :Retrieve the resource;
        endif
    else(no)
        :Retrieve the resource;
    endif
else (no)
    if (Is the player really this character ?) then (no)
     :Block the character on the current player’s board;
    else(yes)
        :The current player win the game;
    endif
endif


stop

@enduml