@startuml

title Analyse - Hoax

<<<<<<< HEAD
class Game implements ResourceOwner{
    --Requettes--
=======
class Game {
    --Requêtes--
    +int getNbPlayer()
    +int getNbUneliminatedPlayer()
    +boolean isTheGameOver()
    +Player getActivePlayer()
>>>>>>> master
    +List<Player> getPlayers()
    +List<Player> getRemainingPlayers()
    +int getNbRemainingPlayer()
    +int getNbPlayer()
    +Player getRemainingPlayerByName(String name)
    +Player getEliminatedPlayerByName(String name)
    +Player getPlayerByName(String name)
    +Player getNextRemainingPlayer()
    +Player getCurrentPlayer()
    +Player getCurrentUser()
    +boolean isGameStarted()
    +boolean isEliminated(Player player)
    +boolean isRemainingPlayer(Player player)
    +boolean isGameOver()
    --Commandes--
    +void setCurrentPlayer(Player player)
    +boolean eliminatePlayer(Player playerToEliminate)
    +void addNewRemainingPlayer(Player playerToAdd)
    +void startGame(Player player)
    --Constructeur--
    +Game()
}

Game "1" -- "3..6" PlayerInterface: Organize
Game "1" -- "1" PlayerInterface: Active player

<<<<<<< HEAD
interface PlayerInterface {
    --Requettes--
=======
class Player {
    --Requêtes--
>>>>>>> master
    +boolean isEliminated()
    +Character getCharacter()
    +String getName()
    --Commandes--
    +void setEliminated()
    +boolean denounce(Player targetPlayer, Character accusation)
}

class Player implements PlayerInterface,ResourceOwner{

    --Constructeur--
    +Player(String name, Character role)
    +Player(String name)
}

enum ResourcesType{
    CASH
    EVIDENCE
    PRESTIGE
}

ResourcesType <.. ResourceOwner

interface ResourceOwner{
    --Requettes--
    +getResource(ResourceType type)
    +Map<ResourcesType, Integer> getResources();
    --Commandes--
    +void take(ResourcesType type, int quantity, ResourceOwner target)
    +void setResource(ResourcesType type, int nbset)
    +void initialiseResource(Map<ResourcesType, Integer> resources, int initialValue)
    -void checkOnRessourceSet(int nbToSet)
}

PlayerInterface "1" -- "1" Character

class Character{
}

Character "1"--"1" Name

enum Name{
<<<<<<< HEAD
    The Ex (l'ex)
    The Lover (la maîtresse)
    The Son-in-law (Le beau-fils)
    The Distant cousin (le cousin éloigné)
    The Chef (la cuisinière)
    The Gardener (Le Jardinier)
    The Butler (le majordome)
=======
The Ex (L'ex)
The Lover (La maîtresse)
The Son-in-law (Le beau-fils)
The Distant cousin (Le cousin éloigné)
The Chef (La cuisinière)
The Gardener (Le Jardinier)
The Butler (Le majordome)
>>>>>>> master
}

@enduml
