<?xml version="1.0" encoding="UTF-8" standalone="no"?><svg xmlns="http://www.w3.org/2000/svg" xmlns:xlink="http://www.w3.org/1999/xlink" contentScriptType="application/ecmascript" contentStyleType="text/css" height="824px" preserveAspectRatio="none" style="width:2817px;height:824px;" version="1.1" viewBox="0 0 2817 824" width="2817px" zoomAndPan="magnify"><defs><filter height="300%" id="f1aunnbiefyaf0" width="300%" x="-1" y="-1"><feGaussianBlur result="blurOut" stdDeviation="2.0"/><feColorMatrix in="blurOut" result="blurOut2" type="matrix" values="0 0 0 0 0 0 0 0 0 0 0 0 0 0 0 0 0 0 .4 0"/><feOffset dx="4.0" dy="4.0" in="blurOut2" result="blurOut3"/><feBlend in="SourceGraphic" in2="blurOut3" mode="normal"/></filter></defs><g><text fill="#000000" font-family="sans-serif" font-size="18" lengthAdjust="spacingAndGlyphs" textLength="221" x="1301.5" y="16.708">Classes - Class Diagram</text><!--MD5=[9928274bf42cb24389242caa3f0d41de]
class MessageHandler--><rect fill="#FEFECE" filter="url(#f1aunnbiefyaf0)" height="60.8047" id="MessageHandler" style="stroke: #A80036; stroke-width: 1.5;" width="349" x="1232.5" y="28.9531"/><ellipse cx="1353.75" cy="44.9531" fill="#B4A7E5" rx="11" ry="11" style="stroke: #A80036; stroke-width: 1.0;"/><path d="M1354.7031,41.7344 L1356.4219,41.7344 C1356.8125,41.7344 1357,41.7031 1357.125,41.625 C1357.3906,41.4688 1357.5313,41.1875 1357.5313,40.8906 C1357.5313,40.625 1357.4219,40.3594 1357.1875,40.1875 C1357.0156,40.0781 1356.875,40.0469 1356.4219,40.0469 L1351.2813,40.0469 C1350.8438,40.0469 1350.7188,40.0625 1350.5625,40.1563 C1350.3125,40.3125 1350.1563,40.6094 1350.1563,40.8906 C1350.1563,41.1719 1350.2969,41.4219 1350.5156,41.5938 C1350.6719,41.7031 1350.8594,41.7344 1351.2813,41.7344 L1353,41.7344 L1353,48.25 L1351.2813,48.25 C1350.8438,48.25 1350.7188,48.2656 1350.5625,48.375 C1350.3125,48.5313 1350.1563,48.8125 1350.1563,49.1094 C1350.1563,49.3594 1350.2969,49.625 1350.5156,49.7813 C1350.6719,49.9063 1350.875,49.9531 1351.2813,49.9531 L1356.4219,49.9531 C1357.1719,49.9531 1357.5313,49.6719 1357.5313,49.1094 C1357.5313,48.8281 1357.4219,48.5781 1357.1875,48.4063 C1357.0156,48.2813 1356.875,48.25 1356.4219,48.25 L1354.7031,48.25 L1354.7031,41.7344 Z "/><text fill="#000000" font-family="sans-serif" font-size="12" font-style="italic" lengthAdjust="spacingAndGlyphs" textLength="98" x="1374.25" y="49.1074">MessageHandler</text><line style="stroke: #A80036; stroke-width: 1.5;" x1="1233.5" x2="1580.5" y1="60.9531" y2="60.9531"/><line style="stroke: #A80036; stroke-width: 1.5;" x1="1233.5" x2="1580.5" y1="68.9531" y2="68.9531"/><ellipse cx="1243.5" cy="79.9531" fill="#84BE84" rx="3" ry="3" style="stroke: #038048; stroke-width: 1.0;"/><text fill="#000000" font-family="sans-serif" font-size="11" lengthAdjust="spacingAndGlyphs" textLength="323" x="1252.5" y="83.1636">void processMessage(String username, String message)</text><!--MD5=[c9a88ac217e761a2cabb2c650427d70c]
class PlayingGame--><rect fill="#FEFECE" filter="url(#f1aunnbiefyaf0)" height="124.8281" id="PlayingGame" style="stroke: #A80036; stroke-width: 1.5;" width="188" x="1313" y="150.9531"/><ellipse cx="1364.75" cy="166.9531" fill="#ADD1B2" rx="11" ry="11" style="stroke: #A80036; stroke-width: 1.0;"/><path d="M1367.0938,162.625 C1366.1563,162.1875 1365.5625,162.0469 1364.6875,162.0469 C1362.0625,162.0469 1360.0625,164.125 1360.0625,166.8438 L1360.0625,167.9688 C1360.0625,170.5469 1362.1719,172.4375 1365.0625,172.4375 C1366.2813,172.4375 1367.4375,172.1406 1368.1875,171.5938 C1368.7656,171.1875 1369.0938,170.7344 1369.0938,170.3438 C1369.0938,169.8906 1368.7031,169.5 1368.2344,169.5 C1368.0156,169.5 1367.8125,169.5781 1367.625,169.7656 C1367.1719,170.25 1367.1719,170.25 1366.9844,170.3438 C1366.5625,170.6094 1365.875,170.7344 1365.1094,170.7344 C1363.0625,170.7344 1361.7656,169.6406 1361.7656,167.9375 L1361.7656,166.8438 C1361.7656,165.0625 1363.0156,163.75 1364.75,163.75 C1365.3281,163.75 1365.9375,163.9063 1366.4063,164.1563 C1366.8906,164.4375 1367.0625,164.6563 1367.1563,165.0625 C1367.2188,165.4688 1367.25,165.5938 1367.3906,165.7188 C1367.5313,165.8594 1367.7656,165.9688 1367.9844,165.9688 C1368.25,165.9688 1368.5156,165.8281 1368.6875,165.6094 C1368.7969,165.4531 1368.8281,165.2656 1368.8281,164.8438 L1368.8281,163.4219 C1368.8281,162.9844 1368.8125,162.8594 1368.7188,162.7031 C1368.5625,162.4375 1368.2813,162.2969 1367.9844,162.2969 C1367.6875,162.2969 1367.4844,162.3906 1367.2656,162.7031 L1367.0938,162.625 Z "/><text fill="#000000" font-family="sans-serif" font-size="12" lengthAdjust="spacingAndGlyphs" textLength="76" x="1385.25" y="171.1074">PlayingGame</text><line style="stroke: #A80036; stroke-width: 1.5;" x1="1314" x2="1500" y1="182.9531" y2="182.9531"/><rect fill="none" height="6" style="stroke: #C82930; stroke-width: 1.0;" width="6" x="1321" y="190.9531"/><text fill="#000000" font-family="sans-serif" font-size="11" lengthAdjust="spacingAndGlyphs" textLength="72" x="1333" y="197.1636">Game game</text><rect fill="none" height="6" style="stroke: #C82930; stroke-width: 1.0;" width="6" x="1321" y="203.7578"/><text fill="#000000" font-family="sans-serif" font-size="11" lengthAdjust="spacingAndGlyphs" textLength="162" x="1333" y="209.9683">Map&lt;String, Player&gt; players</text><line style="stroke: #A80036; stroke-width: 1.5;" x1="1314" x2="1500" y1="216.5625" y2="216.5625"/><ellipse cx="1324" cy="227.5625" fill="#84BE84" rx="3" ry="3" style="stroke: #038048; stroke-width: 1.0;"/><text fill="#000000" font-family="sans-serif" font-size="11" lengthAdjust="spacingAndGlyphs" textLength="155" x="1333" y="230.7729">PlayingGame(Game game)</text><ellipse cx="1324" cy="240.3672" fill="#84BE84" rx="3" ry="3" style="stroke: #038048; stroke-width: 1.0;"/><text fill="#000000" font-family="sans-serif" font-size="11" lengthAdjust="spacingAndGlyphs" textLength="61" x="1333" y="243.5776">void start()</text><ellipse cx="1324" cy="253.1719" fill="#84BE84" rx="3" ry="3" style="stroke: #038048; stroke-width: 1.0;"/><text fill="#000000" font-family="sans-serif" font-size="11" lengthAdjust="spacingAndGlyphs" textLength="66" x="1333" y="256.3823">void reset()</text><ellipse cx="1324" cy="265.9766" fill="#84BE84" rx="3" ry="3" style="stroke: #038048; stroke-width: 1.0;"/><text fill="#000000" font-family="sans-serif" font-size="11" lengthAdjust="spacingAndGlyphs" textLength="87" x="1333" y="269.187">void nextTurn()</text><!--MD5=[84e15cce0309d50f51b2a1cb67fe3c29]
class RoundManager--><rect fill="#FEFECE" filter="url(#f1aunnbiefyaf0)" height="150.4375" id="RoundManager" style="stroke: #A80036; stroke-width: 1.5;" width="273" x="976.5" y="352.9531"/><ellipse cx="1064.25" cy="368.9531" fill="#ADD1B2" rx="11" ry="11" style="stroke: #A80036; stroke-width: 1.0;"/><path d="M1066.5938,364.625 C1065.6563,364.1875 1065.0625,364.0469 1064.1875,364.0469 C1061.5625,364.0469 1059.5625,366.125 1059.5625,368.8438 L1059.5625,369.9688 C1059.5625,372.5469 1061.6719,374.4375 1064.5625,374.4375 C1065.7813,374.4375 1066.9375,374.1406 1067.6875,373.5938 C1068.2656,373.1875 1068.5938,372.7344 1068.5938,372.3438 C1068.5938,371.8906 1068.2031,371.5 1067.7344,371.5 C1067.5156,371.5 1067.3125,371.5781 1067.125,371.7656 C1066.6719,372.25 1066.6719,372.25 1066.4844,372.3438 C1066.0625,372.6094 1065.375,372.7344 1064.6094,372.7344 C1062.5625,372.7344 1061.2656,371.6406 1061.2656,369.9375 L1061.2656,368.8438 C1061.2656,367.0625 1062.5156,365.75 1064.25,365.75 C1064.8281,365.75 1065.4375,365.9063 1065.9063,366.1563 C1066.3906,366.4375 1066.5625,366.6563 1066.6563,367.0625 C1066.7188,367.4688 1066.75,367.5938 1066.8906,367.7188 C1067.0313,367.8594 1067.2656,367.9688 1067.4844,367.9688 C1067.75,367.9688 1068.0156,367.8281 1068.1875,367.6094 C1068.2969,367.4531 1068.3281,367.2656 1068.3281,366.8438 L1068.3281,365.4219 C1068.3281,364.9844 1068.3125,364.8594 1068.2188,364.7031 C1068.0625,364.4375 1067.7813,364.2969 1067.4844,364.2969 C1067.1875,364.2969 1066.9844,364.3906 1066.7656,364.7031 L1066.5938,364.625 Z "/><text fill="#000000" font-family="sans-serif" font-size="12" lengthAdjust="spacingAndGlyphs" textLength="89" x="1084.75" y="373.1074">RoundManager</text><line style="stroke: #A80036; stroke-width: 1.5;" x1="977.5" x2="1248.5" y1="384.9531" y2="384.9531"/><rect fill="none" height="6" style="stroke: #C82930; stroke-width: 1.0;" width="6" x="984.5" y="392.9531"/><text fill="#000000" font-family="sans-serif" font-size="11" lengthAdjust="spacingAndGlyphs" textLength="182" x="996.5" y="399.1636">ArrayList&lt;Player&gt; activePlayers</text><rect fill="none" height="6" style="stroke: #C82930; stroke-width: 1.0;" width="6" x="984.5" y="405.7578"/><text fill="#000000" font-family="sans-serif" font-size="11" lengthAdjust="spacingAndGlyphs" textLength="65" x="996.5" y="411.9683">int position;</text><line style="stroke: #A80036; stroke-width: 1.5;" x1="977.5" x2="1248.5" y1="418.5625" y2="418.5625"/><ellipse cx="987.5" cy="429.5625" fill="#84BE84" rx="3" ry="3" style="stroke: #038048; stroke-width: 1.0;"/><text fill="#000000" font-family="sans-serif" font-size="11" lengthAdjust="spacingAndGlyphs" textLength="247" x="996.5" y="432.7729">RoundManager(Collection&lt;Player&gt; players)</text><ellipse cx="987.5" cy="442.3672" fill="#84BE84" rx="3" ry="3" style="stroke: #038048; stroke-width: 1.0;"/><text fill="#000000" font-family="sans-serif" font-size="11" lengthAdjust="spacingAndGlyphs" textLength="73" x="996.5" y="445.5776">Player next()</text><ellipse cx="987.5" cy="455.1719" fill="#84BE84" rx="3" ry="3" style="stroke: #038048; stroke-width: 1.0;"/><text fill="#000000" font-family="sans-serif" font-size="11" lengthAdjust="spacingAndGlyphs" textLength="143" x="996.5" y="458.3823">Player getCurrentPlayer()</text><ellipse cx="987.5" cy="467.9766" fill="#84BE84" rx="3" ry="3" style="stroke: #038048; stroke-width: 1.0;"/><text fill="#000000" font-family="sans-serif" font-size="11" lengthAdjust="spacingAndGlyphs" textLength="191" x="996.5" y="471.187">void removePlayer(Player player)</text><ellipse cx="987.5" cy="480.7813" fill="#84BE84" rx="3" ry="3" style="stroke: #038048; stroke-width: 1.0;"/><text fill="#000000" font-family="sans-serif" font-size="11" lengthAdjust="spacingAndGlyphs" textLength="198" x="996.5" y="483.9917">int getPlayerPosition(Player player)</text><ellipse cx="987.5" cy="493.5859" fill="#84BE84" rx="3" ry="3" style="stroke: #038048; stroke-width: 1.0;"/><text fill="#000000" font-family="sans-serif" font-size="11" lengthAdjust="spacingAndGlyphs" textLength="138" x="996.5" y="496.7964">int getNumberOfPlayer()</text><!--MD5=[3eff9d4279c887ef9286477750bdaaff]
class Character--><rect fill="#FEFECE" filter="url(#f1aunnbiefyaf0)" height="99.2188" id="Character" style="stroke: #A80036; stroke-width: 1.5;" width="370" x="1221" y="579.9531"/><ellipse cx="1372.25" cy="595.9531" fill="#A9DCDF" rx="11" ry="11" style="stroke: #A80036; stroke-width: 1.0;"/><path d="M1374.3281,597.7656 L1374.7188,598.75 L1374.3281,598.75 C1373.875,598.75 1373.7656,598.7656 1373.6094,598.875 C1373.3594,599.0313 1373.2031,599.3125 1373.2031,599.6094 C1373.2031,599.875 1373.3438,600.125 1373.5625,600.2813 C1373.7031,600.4063 1373.9063,600.4531 1374.3281,600.4531 L1376.6875,600.4531 C1377.0469,600.4531 1377.2656,600.4219 1377.4063,600.3281 C1377.6563,600.1875 1377.8125,599.8906 1377.8125,599.6094 C1377.8125,599.3281 1377.6719,599.0781 1377.4531,598.9219 C1377.2813,598.7813 1377.125,598.75 1376.6563,598.75 L1373.2656,590.5469 L1369.5938,590.5469 C1369.1406,590.5469 1369.0156,590.5625 1368.8594,590.6563 C1368.6094,590.8281 1368.4531,591.1094 1368.4531,591.3906 C1368.4531,591.6719 1368.5938,591.9219 1368.8125,592.0938 C1368.9844,592.2031 1369.1563,592.2344 1369.5938,592.2344 L1370.6719,592.2344 L1368.0313,598.75 C1367.6094,598.75 1367.4531,598.7656 1367.2969,598.875 C1367.0469,599.0313 1366.8906,599.3125 1366.8906,599.6094 C1366.8906,600.1719 1367.2656,600.4531 1368.0156,600.4531 L1370.2813,600.4531 C1370.6406,600.4531 1370.8594,600.4219 1370.9844,600.3281 C1371.25,600.1875 1371.3906,599.8906 1371.3906,599.6094 C1371.3906,599.3281 1371.2656,599.0781 1371.0469,598.9063 C1370.875,598.7813 1370.7344,598.75 1370.2813,598.75 L1369.8906,598.75 L1370.2813,597.7656 L1374.3281,597.7656 Z M1373.625,596.0625 L1370.9531,596.0625 L1372.2969,592.7969 L1373.625,596.0625 Z "/><text fill="#000000" font-family="sans-serif" font-size="12" font-style="italic" lengthAdjust="spacingAndGlyphs" textLength="59" x="1392.75" y="600.1074">Character</text><line style="stroke: #A80036; stroke-width: 1.5;" x1="1222" x2="1590" y1="611.9531" y2="611.9531"/><polygon fill="none" points="1232,617.9531,1236,621.9531,1232,625.9531,1228,621.9531" style="stroke: #B38D22; stroke-width: 1.0;"/><text fill="#000000" font-family="sans-serif" font-size="11" lengthAdjust="spacingAndGlyphs" textLength="70" x="1241" y="626.1636">String name</text><line style="stroke: #A80036; stroke-width: 1.5;" x1="1222" x2="1590" y1="632.7578" y2="632.7578"/><ellipse cx="1232" cy="643.7578" fill="#84BE84" rx="3" ry="3" style="stroke: #038048; stroke-width: 1.0;"/><text fill="#000000" font-family="sans-serif" font-size="11" lengthAdjust="spacingAndGlyphs" textLength="98" x="1241" y="646.9683">String getName()</text><ellipse cx="1232" cy="656.5625" fill="#84BE84" rx="3" ry="3" style="stroke: #038048; stroke-width: 1.0;"/><text fill="#000000" font-family="sans-serif" font-size="11" lengthAdjust="spacingAndGlyphs" textLength="220" x="1241" y="659.7729">boolean equals(String characterName)</text><ellipse cx="1232" cy="669.3672" fill="#84BE84" rx="3" ry="3" style="stroke: #038048; stroke-width: 1.0;"/><text fill="#000000" font-family="sans-serif" font-size="11" lengthAdjust="spacingAndGlyphs" textLength="344" x="1241" y="672.5776">void executePrivilege(int numPrivilege, PlayingGame game)</text><!--MD5=[a061826bb478522089fc4bebea04a1ce]
class Ex--><rect fill="#FEFECE" filter="url(#f1aunnbiefyaf0)" height="73.6094" id="Ex" style="stroke: #A80036; stroke-width: 1.5;" width="370" x="6" y="739.9531"/><ellipse cx="179.75" cy="755.9531" fill="#ADD1B2" rx="11" ry="11" style="stroke: #A80036; stroke-width: 1.0;"/><path d="M182.0938,751.625 C181.1563,751.1875 180.5625,751.0469 179.6875,751.0469 C177.0625,751.0469 175.0625,753.125 175.0625,755.8438 L175.0625,756.9688 C175.0625,759.5469 177.1719,761.4375 180.0625,761.4375 C181.2813,761.4375 182.4375,761.1406 183.1875,760.5938 C183.7656,760.1875 184.0938,759.7344 184.0938,759.3438 C184.0938,758.8906 183.7031,758.5 183.2344,758.5 C183.0156,758.5 182.8125,758.5781 182.625,758.7656 C182.1719,759.25 182.1719,759.25 181.9844,759.3438 C181.5625,759.6094 180.875,759.7344 180.1094,759.7344 C178.0625,759.7344 176.7656,758.6406 176.7656,756.9375 L176.7656,755.8438 C176.7656,754.0625 178.0156,752.75 179.75,752.75 C180.3281,752.75 180.9375,752.9063 181.4063,753.1563 C181.8906,753.4375 182.0625,753.6563 182.1563,754.0625 C182.2188,754.4688 182.25,754.5938 182.3906,754.7188 C182.5313,754.8594 182.7656,754.9688 182.9844,754.9688 C183.25,754.9688 183.5156,754.8281 183.6875,754.6094 C183.7969,754.4531 183.8281,754.2656 183.8281,753.8438 L183.8281,752.4219 C183.8281,751.9844 183.8125,751.8594 183.7188,751.7031 C183.5625,751.4375 183.2813,751.2969 182.9844,751.2969 C182.6875,751.2969 182.4844,751.3906 182.2656,751.7031 L182.0938,751.625 Z "/><text fill="#000000" font-family="sans-serif" font-size="12" lengthAdjust="spacingAndGlyphs" textLength="14" x="200.25" y="760.1074">Ex</text><line style="stroke: #A80036; stroke-width: 1.5;" x1="7" x2="375" y1="771.9531" y2="771.9531"/><line style="stroke: #A80036; stroke-width: 1.5;" x1="7" x2="375" y1="779.9531" y2="779.9531"/><ellipse cx="17" cy="790.9531" fill="#84BE84" rx="3" ry="3" style="stroke: #038048; stroke-width: 1.0;"/><text fill="#000000" font-family="sans-serif" font-size="11" lengthAdjust="spacingAndGlyphs" textLength="90" x="26" y="794.1636">String getNom()</text><ellipse cx="17" cy="803.7578" fill="#84BE84" rx="3" ry="3" style="stroke: #038048; stroke-width: 1.0;"/><text fill="#000000" font-family="sans-serif" font-size="11" lengthAdjust="spacingAndGlyphs" textLength="344" x="26" y="806.9683">void executePrivilege(int numPrivilege, PlayingGame game)</text><!--MD5=[c219c2cd863f33f18e97a83569303098]
class SonInLaw--><rect fill="#FEFECE" filter="url(#f1aunnbiefyaf0)" height="73.6094" id="SonInLaw" style="stroke: #A80036; stroke-width: 1.5;" width="370" x="411" y="739.9531"/><ellipse cx="563.75" cy="755.9531" fill="#ADD1B2" rx="11" ry="11" style="stroke: #A80036; stroke-width: 1.0;"/><path d="M566.0938,751.625 C565.1563,751.1875 564.5625,751.0469 563.6875,751.0469 C561.0625,751.0469 559.0625,753.125 559.0625,755.8438 L559.0625,756.9688 C559.0625,759.5469 561.1719,761.4375 564.0625,761.4375 C565.2813,761.4375 566.4375,761.1406 567.1875,760.5938 C567.7656,760.1875 568.0938,759.7344 568.0938,759.3438 C568.0938,758.8906 567.7031,758.5 567.2344,758.5 C567.0156,758.5 566.8125,758.5781 566.625,758.7656 C566.1719,759.25 566.1719,759.25 565.9844,759.3438 C565.5625,759.6094 564.875,759.7344 564.1094,759.7344 C562.0625,759.7344 560.7656,758.6406 560.7656,756.9375 L560.7656,755.8438 C560.7656,754.0625 562.0156,752.75 563.75,752.75 C564.3281,752.75 564.9375,752.9063 565.4063,753.1563 C565.8906,753.4375 566.0625,753.6563 566.1563,754.0625 C566.2188,754.4688 566.25,754.5938 566.3906,754.7188 C566.5313,754.8594 566.7656,754.9688 566.9844,754.9688 C567.25,754.9688 567.5156,754.8281 567.6875,754.6094 C567.7969,754.4531 567.8281,754.2656 567.8281,753.8438 L567.8281,752.4219 C567.8281,751.9844 567.8125,751.8594 567.7188,751.7031 C567.5625,751.4375 567.2813,751.2969 566.9844,751.2969 C566.6875,751.2969 566.4844,751.3906 566.2656,751.7031 L566.0938,751.625 Z "/><text fill="#000000" font-family="sans-serif" font-size="12" lengthAdjust="spacingAndGlyphs" textLength="56" x="584.25" y="760.1074">SonInLaw</text><line style="stroke: #A80036; stroke-width: 1.5;" x1="412" x2="780" y1="771.9531" y2="771.9531"/><line style="stroke: #A80036; stroke-width: 1.5;" x1="412" x2="780" y1="779.9531" y2="779.9531"/><ellipse cx="422" cy="790.9531" fill="#84BE84" rx="3" ry="3" style="stroke: #038048; stroke-width: 1.0;"/><text fill="#000000" font-family="sans-serif" font-size="11" lengthAdjust="spacingAndGlyphs" textLength="90" x="431" y="794.1636">String getNom()</text><ellipse cx="422" cy="803.7578" fill="#84BE84" rx="3" ry="3" style="stroke: #038048; stroke-width: 1.0;"/><text fill="#000000" font-family="sans-serif" font-size="11" lengthAdjust="spacingAndGlyphs" textLength="344" x="431" y="806.9683">void executePrivilege(int numPrivilege, PlayingGame game)</text><!--MD5=[73db119cb0f56c6057c319b4e4299bed]
class Lover--><rect fill="#FEFECE" filter="url(#f1aunnbiefyaf0)" height="73.6094" id="Lover" style="stroke: #A80036; stroke-width: 1.5;" width="370" x="816" y="739.9531"/><ellipse cx="979.75" cy="755.9531" fill="#ADD1B2" rx="11" ry="11" style="stroke: #A80036; stroke-width: 1.0;"/><path d="M982.0938,751.625 C981.1563,751.1875 980.5625,751.0469 979.6875,751.0469 C977.0625,751.0469 975.0625,753.125 975.0625,755.8438 L975.0625,756.9688 C975.0625,759.5469 977.1719,761.4375 980.0625,761.4375 C981.2813,761.4375 982.4375,761.1406 983.1875,760.5938 C983.7656,760.1875 984.0938,759.7344 984.0938,759.3438 C984.0938,758.8906 983.7031,758.5 983.2344,758.5 C983.0156,758.5 982.8125,758.5781 982.625,758.7656 C982.1719,759.25 982.1719,759.25 981.9844,759.3438 C981.5625,759.6094 980.875,759.7344 980.1094,759.7344 C978.0625,759.7344 976.7656,758.6406 976.7656,756.9375 L976.7656,755.8438 C976.7656,754.0625 978.0156,752.75 979.75,752.75 C980.3281,752.75 980.9375,752.9063 981.4063,753.1563 C981.8906,753.4375 982.0625,753.6563 982.1563,754.0625 C982.2188,754.4688 982.25,754.5938 982.3906,754.7188 C982.5313,754.8594 982.7656,754.9688 982.9844,754.9688 C983.25,754.9688 983.5156,754.8281 983.6875,754.6094 C983.7969,754.4531 983.8281,754.2656 983.8281,753.8438 L983.8281,752.4219 C983.8281,751.9844 983.8125,751.8594 983.7188,751.7031 C983.5625,751.4375 983.2813,751.2969 982.9844,751.2969 C982.6875,751.2969 982.4844,751.3906 982.2656,751.7031 L982.0938,751.625 Z "/><text fill="#000000" font-family="sans-serif" font-size="12" lengthAdjust="spacingAndGlyphs" textLength="34" x="1000.25" y="760.1074">Lover</text><line style="stroke: #A80036; stroke-width: 1.5;" x1="817" x2="1185" y1="771.9531" y2="771.9531"/><line style="stroke: #A80036; stroke-width: 1.5;" x1="817" x2="1185" y1="779.9531" y2="779.9531"/><ellipse cx="827" cy="790.9531" fill="#84BE84" rx="3" ry="3" style="stroke: #038048; stroke-width: 1.0;"/><text fill="#000000" font-family="sans-serif" font-size="11" lengthAdjust="spacingAndGlyphs" textLength="90" x="836" y="794.1636">String getNom()</text><ellipse cx="827" cy="803.7578" fill="#84BE84" rx="3" ry="3" style="stroke: #038048; stroke-width: 1.0;"/><text fill="#000000" font-family="sans-serif" font-size="11" lengthAdjust="spacingAndGlyphs" textLength="344" x="836" y="806.9683">void executePrivilege(int numPrivilege, PlayingGame game)</text><!--MD5=[be0b71aba92562e23f6c9f8fb2246fb4]
class DistantCousin--><rect fill="#FEFECE" filter="url(#f1aunnbiefyaf0)" height="73.6094" id="DistantCousin" style="stroke: #A80036; stroke-width: 1.5;" width="370" x="1221" y="739.9531"/><ellipse cx="1361.25" cy="755.9531" fill="#ADD1B2" rx="11" ry="11" style="stroke: #A80036; stroke-width: 1.0;"/><path d="M1363.5938,751.625 C1362.6563,751.1875 1362.0625,751.0469 1361.1875,751.0469 C1358.5625,751.0469 1356.5625,753.125 1356.5625,755.8438 L1356.5625,756.9688 C1356.5625,759.5469 1358.6719,761.4375 1361.5625,761.4375 C1362.7813,761.4375 1363.9375,761.1406 1364.6875,760.5938 C1365.2656,760.1875 1365.5938,759.7344 1365.5938,759.3438 C1365.5938,758.8906 1365.2031,758.5 1364.7344,758.5 C1364.5156,758.5 1364.3125,758.5781 1364.125,758.7656 C1363.6719,759.25 1363.6719,759.25 1363.4844,759.3438 C1363.0625,759.6094 1362.375,759.7344 1361.6094,759.7344 C1359.5625,759.7344 1358.2656,758.6406 1358.2656,756.9375 L1358.2656,755.8438 C1358.2656,754.0625 1359.5156,752.75 1361.25,752.75 C1361.8281,752.75 1362.4375,752.9063 1362.9063,753.1563 C1363.3906,753.4375 1363.5625,753.6563 1363.6563,754.0625 C1363.7188,754.4688 1363.75,754.5938 1363.8906,754.7188 C1364.0313,754.8594 1364.2656,754.9688 1364.4844,754.9688 C1364.75,754.9688 1365.0156,754.8281 1365.1875,754.6094 C1365.2969,754.4531 1365.3281,754.2656 1365.3281,753.8438 L1365.3281,752.4219 C1365.3281,751.9844 1365.3125,751.8594 1365.2188,751.7031 C1365.0625,751.4375 1364.7813,751.2969 1364.4844,751.2969 C1364.1875,751.2969 1363.9844,751.3906 1363.7656,751.7031 L1363.5938,751.625 Z "/><text fill="#000000" font-family="sans-serif" font-size="12" lengthAdjust="spacingAndGlyphs" textLength="81" x="1381.75" y="760.1074">DistantCousin</text><line style="stroke: #A80036; stroke-width: 1.5;" x1="1222" x2="1590" y1="771.9531" y2="771.9531"/><line style="stroke: #A80036; stroke-width: 1.5;" x1="1222" x2="1590" y1="779.9531" y2="779.9531"/><ellipse cx="1232" cy="790.9531" fill="#84BE84" rx="3" ry="3" style="stroke: #038048; stroke-width: 1.0;"/><text fill="#000000" font-family="sans-serif" font-size="11" lengthAdjust="spacingAndGlyphs" textLength="90" x="1241" y="794.1636">String getNom()</text><ellipse cx="1232" cy="803.7578" fill="#84BE84" rx="3" ry="3" style="stroke: #038048; stroke-width: 1.0;"/><text fill="#000000" font-family="sans-serif" font-size="11" lengthAdjust="spacingAndGlyphs" textLength="344" x="1241" y="806.9683">void executePrivilege(int numPrivilege, PlayingGame game)</text><!--MD5=[8e3d862a6d367503b68540d52b1e557a]
class Chef--><rect fill="#FEFECE" filter="url(#f1aunnbiefyaf0)" height="73.6094" id="Chef" style="stroke: #A80036; stroke-width: 1.5;" width="370" x="1626" y="739.9531"/><ellipse cx="1793.25" cy="755.9531" fill="#ADD1B2" rx="11" ry="11" style="stroke: #A80036; stroke-width: 1.0;"/><path d="M1795.5938,751.625 C1794.6563,751.1875 1794.0625,751.0469 1793.1875,751.0469 C1790.5625,751.0469 1788.5625,753.125 1788.5625,755.8438 L1788.5625,756.9688 C1788.5625,759.5469 1790.6719,761.4375 1793.5625,761.4375 C1794.7813,761.4375 1795.9375,761.1406 1796.6875,760.5938 C1797.2656,760.1875 1797.5938,759.7344 1797.5938,759.3438 C1797.5938,758.8906 1797.2031,758.5 1796.7344,758.5 C1796.5156,758.5 1796.3125,758.5781 1796.125,758.7656 C1795.6719,759.25 1795.6719,759.25 1795.4844,759.3438 C1795.0625,759.6094 1794.375,759.7344 1793.6094,759.7344 C1791.5625,759.7344 1790.2656,758.6406 1790.2656,756.9375 L1790.2656,755.8438 C1790.2656,754.0625 1791.5156,752.75 1793.25,752.75 C1793.8281,752.75 1794.4375,752.9063 1794.9063,753.1563 C1795.3906,753.4375 1795.5625,753.6563 1795.6563,754.0625 C1795.7188,754.4688 1795.75,754.5938 1795.8906,754.7188 C1796.0313,754.8594 1796.2656,754.9688 1796.4844,754.9688 C1796.75,754.9688 1797.0156,754.8281 1797.1875,754.6094 C1797.2969,754.4531 1797.3281,754.2656 1797.3281,753.8438 L1797.3281,752.4219 C1797.3281,751.9844 1797.3125,751.8594 1797.2188,751.7031 C1797.0625,751.4375 1796.7813,751.2969 1796.4844,751.2969 C1796.1875,751.2969 1795.9844,751.3906 1795.7656,751.7031 L1795.5938,751.625 Z "/><text fill="#000000" font-family="sans-serif" font-size="12" lengthAdjust="spacingAndGlyphs" textLength="27" x="1813.75" y="760.1074">Chef</text><line style="stroke: #A80036; stroke-width: 1.5;" x1="1627" x2="1995" y1="771.9531" y2="771.9531"/><line style="stroke: #A80036; stroke-width: 1.5;" x1="1627" x2="1995" y1="779.9531" y2="779.9531"/><ellipse cx="1637" cy="790.9531" fill="#84BE84" rx="3" ry="3" style="stroke: #038048; stroke-width: 1.0;"/><text fill="#000000" font-family="sans-serif" font-size="11" lengthAdjust="spacingAndGlyphs" textLength="90" x="1646" y="794.1636">String getNom()</text><ellipse cx="1637" cy="803.7578" fill="#84BE84" rx="3" ry="3" style="stroke: #038048; stroke-width: 1.0;"/><text fill="#000000" font-family="sans-serif" font-size="11" lengthAdjust="spacingAndGlyphs" textLength="344" x="1646" y="806.9683">void executePrivilege(int numPrivilege, PlayingGame game)</text><!--MD5=[82578f02219cf436d5727d7b6f6c023b]
class Gardener--><rect fill="#FEFECE" filter="url(#f1aunnbiefyaf0)" height="73.6094" id="Gardener" style="stroke: #A80036; stroke-width: 1.5;" width="370" x="2031" y="739.9531"/><ellipse cx="2183.25" cy="755.9531" fill="#ADD1B2" rx="11" ry="11" style="stroke: #A80036; stroke-width: 1.0;"/><path d="M2185.5938,751.625 C2184.6563,751.1875 2184.0625,751.0469 2183.1875,751.0469 C2180.5625,751.0469 2178.5625,753.125 2178.5625,755.8438 L2178.5625,756.9688 C2178.5625,759.5469 2180.6719,761.4375 2183.5625,761.4375 C2184.7813,761.4375 2185.9375,761.1406 2186.6875,760.5938 C2187.2656,760.1875 2187.5938,759.7344 2187.5938,759.3438 C2187.5938,758.8906 2187.2031,758.5 2186.7344,758.5 C2186.5156,758.5 2186.3125,758.5781 2186.125,758.7656 C2185.6719,759.25 2185.6719,759.25 2185.4844,759.3438 C2185.0625,759.6094 2184.375,759.7344 2183.6094,759.7344 C2181.5625,759.7344 2180.2656,758.6406 2180.2656,756.9375 L2180.2656,755.8438 C2180.2656,754.0625 2181.5156,752.75 2183.25,752.75 C2183.8281,752.75 2184.4375,752.9063 2184.9063,753.1563 C2185.3906,753.4375 2185.5625,753.6563 2185.6563,754.0625 C2185.7188,754.4688 2185.75,754.5938 2185.8906,754.7188 C2186.0313,754.8594 2186.2656,754.9688 2186.4844,754.9688 C2186.75,754.9688 2187.0156,754.8281 2187.1875,754.6094 C2187.2969,754.4531 2187.3281,754.2656 2187.3281,753.8438 L2187.3281,752.4219 C2187.3281,751.9844 2187.3125,751.8594 2187.2188,751.7031 C2187.0625,751.4375 2186.7813,751.2969 2186.4844,751.2969 C2186.1875,751.2969 2185.9844,751.3906 2185.7656,751.7031 L2185.5938,751.625 Z "/><text fill="#000000" font-family="sans-serif" font-size="12" lengthAdjust="spacingAndGlyphs" textLength="57" x="2203.75" y="760.1074">Gardener</text><line style="stroke: #A80036; stroke-width: 1.5;" x1="2032" x2="2400" y1="771.9531" y2="771.9531"/><line style="stroke: #A80036; stroke-width: 1.5;" x1="2032" x2="2400" y1="779.9531" y2="779.9531"/><ellipse cx="2042" cy="790.9531" fill="#84BE84" rx="3" ry="3" style="stroke: #038048; stroke-width: 1.0;"/><text fill="#000000" font-family="sans-serif" font-size="11" lengthAdjust="spacingAndGlyphs" textLength="90" x="2051" y="794.1636">String getNom()</text><ellipse cx="2042" cy="803.7578" fill="#84BE84" rx="3" ry="3" style="stroke: #038048; stroke-width: 1.0;"/><text fill="#000000" font-family="sans-serif" font-size="11" lengthAdjust="spacingAndGlyphs" textLength="344" x="2051" y="806.9683">void executePrivilege(int numPrivilege, PlayingGame game)</text><!--MD5=[d9af8469c57d28fd36f67a9181f1a9f0]
class Butler--><rect fill="#FEFECE" filter="url(#f1aunnbiefyaf0)" height="73.6094" id="Butler" style="stroke: #A80036; stroke-width: 1.5;" width="370" x="2436" y="739.9531"/><ellipse cx="2599.25" cy="755.9531" fill="#ADD1B2" rx="11" ry="11" style="stroke: #A80036; stroke-width: 1.0;"/><path d="M2601.5938,751.625 C2600.6563,751.1875 2600.0625,751.0469 2599.1875,751.0469 C2596.5625,751.0469 2594.5625,753.125 2594.5625,755.8438 L2594.5625,756.9688 C2594.5625,759.5469 2596.6719,761.4375 2599.5625,761.4375 C2600.7813,761.4375 2601.9375,761.1406 2602.6875,760.5938 C2603.2656,760.1875 2603.5938,759.7344 2603.5938,759.3438 C2603.5938,758.8906 2603.2031,758.5 2602.7344,758.5 C2602.5156,758.5 2602.3125,758.5781 2602.125,758.7656 C2601.6719,759.25 2601.6719,759.25 2601.4844,759.3438 C2601.0625,759.6094 2600.375,759.7344 2599.6094,759.7344 C2597.5625,759.7344 2596.2656,758.6406 2596.2656,756.9375 L2596.2656,755.8438 C2596.2656,754.0625 2597.5156,752.75 2599.25,752.75 C2599.8281,752.75 2600.4375,752.9063 2600.9063,753.1563 C2601.3906,753.4375 2601.5625,753.6563 2601.6563,754.0625 C2601.7188,754.4688 2601.75,754.5938 2601.8906,754.7188 C2602.0313,754.8594 2602.2656,754.9688 2602.4844,754.9688 C2602.75,754.9688 2603.0156,754.8281 2603.1875,754.6094 C2603.2969,754.4531 2603.3281,754.2656 2603.3281,753.8438 L2603.3281,752.4219 C2603.3281,751.9844 2603.3125,751.8594 2603.2188,751.7031 C2603.0625,751.4375 2602.7813,751.2969 2602.4844,751.2969 C2602.1875,751.2969 2601.9844,751.3906 2601.7656,751.7031 L2601.5938,751.625 Z "/><text fill="#000000" font-family="sans-serif" font-size="12" lengthAdjust="spacingAndGlyphs" textLength="35" x="2619.75" y="760.1074">Butler</text><line style="stroke: #A80036; stroke-width: 1.5;" x1="2437" x2="2805" y1="771.9531" y2="771.9531"/><line style="stroke: #A80036; stroke-width: 1.5;" x1="2437" x2="2805" y1="779.9531" y2="779.9531"/><ellipse cx="2447" cy="790.9531" fill="#84BE84" rx="3" ry="3" style="stroke: #038048; stroke-width: 1.0;"/><text fill="#000000" font-family="sans-serif" font-size="11" lengthAdjust="spacingAndGlyphs" textLength="90" x="2456" y="794.1636">String getNom()</text><ellipse cx="2447" cy="803.7578" fill="#84BE84" rx="3" ry="3" style="stroke: #038048; stroke-width: 1.0;"/><text fill="#000000" font-family="sans-serif" font-size="11" lengthAdjust="spacingAndGlyphs" textLength="344" x="2456" y="806.9683">void executePrivilege(int numPrivilege, PlayingGame game)</text><!--MD5=[2cb47ba637a0d19583e6199456f6ad0b]
class Player--><rect fill="#FEFECE" filter="url(#f1aunnbiefyaf0)" height="99.2188" id="Player" style="stroke: #A80036; stroke-width: 1.5;" width="245" x="1284.5" y="378.4531"/><ellipse cx="1384.75" cy="394.4531" fill="#ADD1B2" rx="11" ry="11" style="stroke: #A80036; stroke-width: 1.0;"/><path d="M1387.0938,390.125 C1386.1563,389.6875 1385.5625,389.5469 1384.6875,389.5469 C1382.0625,389.5469 1380.0625,391.625 1380.0625,394.3438 L1380.0625,395.4688 C1380.0625,398.0469 1382.1719,399.9375 1385.0625,399.9375 C1386.2813,399.9375 1387.4375,399.6406 1388.1875,399.0938 C1388.7656,398.6875 1389.0938,398.2344 1389.0938,397.8438 C1389.0938,397.3906 1388.7031,397 1388.2344,397 C1388.0156,397 1387.8125,397.0781 1387.625,397.2656 C1387.1719,397.75 1387.1719,397.75 1386.9844,397.8438 C1386.5625,398.1094 1385.875,398.2344 1385.1094,398.2344 C1383.0625,398.2344 1381.7656,397.1406 1381.7656,395.4375 L1381.7656,394.3438 C1381.7656,392.5625 1383.0156,391.25 1384.75,391.25 C1385.3281,391.25 1385.9375,391.4063 1386.4063,391.6563 C1386.8906,391.9375 1387.0625,392.1563 1387.1563,392.5625 C1387.2188,392.9688 1387.25,393.0938 1387.3906,393.2188 C1387.5313,393.3594 1387.7656,393.4688 1387.9844,393.4688 C1388.25,393.4688 1388.5156,393.3281 1388.6875,393.1094 C1388.7969,392.9531 1388.8281,392.7656 1388.8281,392.3438 L1388.8281,390.9219 C1388.8281,390.4844 1388.8125,390.3594 1388.7188,390.2031 C1388.5625,389.9375 1388.2813,389.7969 1387.9844,389.7969 C1387.6875,389.7969 1387.4844,389.8906 1387.2656,390.2031 L1387.0938,390.125 Z "/><text fill="#000000" font-family="sans-serif" font-size="12" lengthAdjust="spacingAndGlyphs" textLength="36" x="1405.25" y="398.6074">Player</text><line style="stroke: #A80036; stroke-width: 1.5;" x1="1285.5" x2="1528.5" y1="410.4531" y2="410.4531"/><rect fill="none" height="6" style="stroke: #C82930; stroke-width: 1.0;" width="6" x="1292.5" y="418.4531"/><text fill="#000000" font-family="sans-serif" font-size="11" lengthAdjust="spacingAndGlyphs" textLength="55" x="1304.5" y="424.6636">User user</text><line style="stroke: #A80036; stroke-width: 1.5;" x1="1285.5" x2="1528.5" y1="431.2578" y2="431.2578"/><ellipse cx="1295.5" cy="442.2578" fill="#84BE84" rx="3" ry="3" style="stroke: #038048; stroke-width: 1.0;"/><text fill="#000000" font-family="sans-serif" font-size="11" lengthAdjust="spacingAndGlyphs" textLength="219" x="1304.5" y="445.4683">Player(User user, Character Character)</text><ellipse cx="1295.5" cy="455.0625" fill="#84BE84" rx="3" ry="3" style="stroke: #038048; stroke-width: 1.0;"/><text fill="#000000" font-family="sans-serif" font-size="11" lengthAdjust="spacingAndGlyphs" textLength="105" x="1304.5" y="458.2729">String getPseudo()</text><ellipse cx="1295.5" cy="467.8672" fill="#84BE84" rx="3" ry="3" style="stroke: #038048; stroke-width: 1.0;"/><text fill="#000000" font-family="sans-serif" font-size="11" lengthAdjust="spacingAndGlyphs" textLength="209" x="1304.5" y="471.0776">CharacterName getCharacterName()</text><!--MD5=[6987bc66bd8845192e2addfb47d98466]
class Vote--><rect fill="#FEFECE" filter="url(#f1aunnbiefyaf0)" height="150.4375" id="Vote" style="stroke: #A80036; stroke-width: 1.5;" width="172" x="1565" y="352.9531"/><ellipse cx="1632.75" cy="368.9531" fill="#ADD1B2" rx="11" ry="11" style="stroke: #A80036; stroke-width: 1.0;"/><path d="M1635.0938,364.625 C1634.1563,364.1875 1633.5625,364.0469 1632.6875,364.0469 C1630.0625,364.0469 1628.0625,366.125 1628.0625,368.8438 L1628.0625,369.9688 C1628.0625,372.5469 1630.1719,374.4375 1633.0625,374.4375 C1634.2813,374.4375 1635.4375,374.1406 1636.1875,373.5938 C1636.7656,373.1875 1637.0938,372.7344 1637.0938,372.3438 C1637.0938,371.8906 1636.7031,371.5 1636.2344,371.5 C1636.0156,371.5 1635.8125,371.5781 1635.625,371.7656 C1635.1719,372.25 1635.1719,372.25 1634.9844,372.3438 C1634.5625,372.6094 1633.875,372.7344 1633.1094,372.7344 C1631.0625,372.7344 1629.7656,371.6406 1629.7656,369.9375 L1629.7656,368.8438 C1629.7656,367.0625 1631.0156,365.75 1632.75,365.75 C1633.3281,365.75 1633.9375,365.9063 1634.4063,366.1563 C1634.8906,366.4375 1635.0625,366.6563 1635.1563,367.0625 C1635.2188,367.4688 1635.25,367.5938 1635.3906,367.7188 C1635.5313,367.8594 1635.7656,367.9688 1635.9844,367.9688 C1636.25,367.9688 1636.5156,367.8281 1636.6875,367.6094 C1636.7969,367.4531 1636.8281,367.2656 1636.8281,366.8438 L1636.8281,365.4219 C1636.8281,364.9844 1636.8125,364.8594 1636.7188,364.7031 C1636.5625,364.4375 1636.2813,364.2969 1635.9844,364.2969 C1635.6875,364.2969 1635.4844,364.3906 1635.2656,364.7031 L1635.0938,364.625 Z "/><text fill="#000000" font-family="sans-serif" font-size="12" lengthAdjust="spacingAndGlyphs" textLength="28" x="1653.25" y="373.1074">Vote</text><line style="stroke: #A80036; stroke-width: 1.5;" x1="1566" x2="1736" y1="384.9531" y2="384.9531"/><rect fill="none" height="6" style="stroke: #C82930; stroke-width: 1.0;" width="6" x="1573" y="392.9531"/><text fill="#000000" font-family="sans-serif" font-size="11" lengthAdjust="spacingAndGlyphs" textLength="73" x="1585" y="399.1636">int nbPlayers</text><rect fill="none" height="6" style="stroke: #C82930; stroke-width: 1.0;" width="6" x="1573" y="405.7578"/><text fill="#000000" font-family="sans-serif" font-size="11" lengthAdjust="spacingAndGlyphs" textLength="72" x="1585" y="411.9683">int yesCount</text><rect fill="none" height="6" style="stroke: #C82930; stroke-width: 1.0;" width="6" x="1573" y="418.5625"/><text fill="#000000" font-family="sans-serif" font-size="11" lengthAdjust="spacingAndGlyphs" textLength="65" x="1585" y="424.7729">int noCount</text><rect fill="none" height="6" style="stroke: #C82930; stroke-width: 1.0;" width="6" x="1573" y="431.3672"/><text fill="#000000" font-family="sans-serif" font-size="11" lengthAdjust="spacingAndGlyphs" textLength="48" x="1585" y="437.5776">int timer</text><line style="stroke: #A80036; stroke-width: 1.5;" x1="1566" x2="1736" y1="444.1719" y2="444.1719"/><ellipse cx="1576" cy="455.1719" fill="#84BE84" rx="3" ry="3" style="stroke: #038048; stroke-width: 1.0;"/><text fill="#000000" font-family="sans-serif" font-size="11" lengthAdjust="spacingAndGlyphs" textLength="134" x="1585" y="458.3823">void start(int nbPlayers)</text><ellipse cx="1576" cy="467.9766" fill="#84BE84" rx="3" ry="3" style="stroke: #038048; stroke-width: 1.0;"/><text fill="#000000" font-family="sans-serif" font-size="11" lengthAdjust="spacingAndGlyphs" textLength="146" x="1585" y="471.187">void voter(boolean isYes)</text><ellipse cx="1576" cy="480.7813" fill="#84BE84" rx="3" ry="3" style="stroke: #038048; stroke-width: 1.0;"/><text fill="#000000" font-family="sans-serif" font-size="11" lengthAdjust="spacingAndGlyphs" textLength="66" x="1585" y="483.9917">void close()</text><ellipse cx="1576" cy="493.5859" fill="#84BE84" rx="3" ry="3" style="stroke: #038048; stroke-width: 1.0;"/><text fill="#000000" font-family="sans-serif" font-size="11" lengthAdjust="spacingAndGlyphs" textLength="103" x="1585" y="496.7964">boolean isVoting()</text><!--MD5=[f2dc45087535c5cdad6086da46318b61]
reverse link Character to Ex--><path d="M1200.59,648.4841 C995.576,667.4621 671.775,700.0931 393,739.9531 C387.446,740.7472 381.811,741.5799 376.125,742.4434 " fill="none" id="Character&lt;-Ex" style="stroke: #A80036; stroke-width: 1.0;"/><polygon fill="none" points="1200.12,641.4991,1220.67,646.6341,1201.4,655.4401,1200.12,641.4991" style="stroke: #A80036; stroke-width: 1.0;"/><!--MD5=[3f6b13f7ed613363244370ac430082de]
reverse link Character to SonInLaw--><path d="M1200.94,667.2891 C1071.81,690.4841 906.483,720.1812 781.308,742.6664 " fill="none" id="Character&lt;-SonInLaw" style="stroke: #A80036; stroke-width: 1.0;"/><polygon fill="none" points="1200.01,660.3431,1220.93,663.6971,1202.48,674.1231,1200.01,660.3431" style="stroke: #A80036; stroke-width: 1.0;"/><!--MD5=[16e57a3f4dac8619fbf5007d123520aa]
reverse link Character to Lover--><path d="M1251.8,685.8531 C1201.44,703.9441 1146.85,723.5547 1101.5,739.8473 " fill="none" id="Character&lt;-Lover" style="stroke: #A80036; stroke-width: 1.0;"/><polygon fill="none" points="1249.67,679.1781,1270.86,679.0041,1254.4,692.3531,1249.67,679.1781" style="stroke: #A80036; stroke-width: 1.0;"/><!--MD5=[6e127317c65b83fbbd199297bacaf835]
reverse link Character to DistantCousin--><path d="M1406,699.4291 C1406,713.4191 1406,727.5953 1406,739.8817 " fill="none" id="Character&lt;-DistantCousin" style="stroke: #A80036; stroke-width: 1.0;"/><polygon fill="none" points="1399,699.3071,1406,679.3071,1413,699.3071,1399,699.3071" style="stroke: #A80036; stroke-width: 1.0;"/><!--MD5=[e09b48f09492a2c6f4e78a2f220ed55b]
reverse link Character to Chef--><path d="M1560.2,685.8531 C1610.56,703.9441 1665.15,723.5547 1710.5,739.8473 " fill="none" id="Character&lt;-Chef" style="stroke: #A80036; stroke-width: 1.0;"/><polygon fill="none" points="1557.6,692.3531,1541.14,679.0041,1562.33,679.1781,1557.6,692.3531" style="stroke: #A80036; stroke-width: 1.0;"/><!--MD5=[91a3142c2e49cb08d67cdb7f61e1f9e7]
reverse link Character to Gardener--><path d="M1611.06,667.2891 C1740.19,690.4841 1905.52,720.1812 2030.69,742.6664 " fill="none" id="Character&lt;-Gardener" style="stroke: #A80036; stroke-width: 1.0;"/><polygon fill="none" points="1609.52,674.1231,1591.07,663.6971,1611.99,660.3431,1609.52,674.1231" style="stroke: #A80036; stroke-width: 1.0;"/><!--MD5=[af38d10086c1ab8177e0682867340688]
reverse link Character to Butler--><path d="M1611.41,648.4841 C1816.42,667.4621 2140.22,700.0931 2419,739.9531 C2424.55,740.7472 2430.19,741.5799 2435.87,742.4434 " fill="none" id="Character&lt;-Butler" style="stroke: #A80036; stroke-width: 1.0;"/><polygon fill="none" points="1610.6,655.4401,1591.33,646.6341,1611.88,641.4991,1610.6,655.4401" style="stroke: #A80036; stroke-width: 1.0;"/><!--MD5=[f6491d7c70be75e2f82ac40e6717ca3d]
link PlayingGame to Vote--><path d="M1477.9,276.2021 C1505.34,300.0981 1536.99,327.6591 1565.66,352.6271 " fill="none" id="PlayingGame-Vote" style="stroke: #A80036; stroke-width: 1.0;"/><text fill="#000000" font-family="sans-serif" font-size="13" lengthAdjust="spacingAndGlyphs" textLength="29" x="1530" y="319.02">vote</text><text fill="#000000" font-family="sans-serif" font-size="13" lengthAdjust="spacingAndGlyphs" textLength="8" x="1477.2172" y="295.9692">1</text><text fill="#000000" font-family="sans-serif" font-size="13" lengthAdjust="spacingAndGlyphs" textLength="8" x="1549.1448" y="341.7851">1</text><!--MD5=[ef1c361f40fd7c12ee259b415869d517]
reverse link MessageHandler to PlayingGame--><path d="M1407,110.4421 C1407,123.3391 1407,137.3721 1407,150.7861 " fill="none" id="MessageHandler&lt;-PlayingGame" style="stroke: #A80036; stroke-width: 1.0; stroke-dasharray: 7.0,7.0;"/><polygon fill="none" points="1400,110.1211,1407,90.1211,1414,110.1211,1400,110.1211" style="stroke: #A80036; stroke-width: 1.0;"/><!--MD5=[10deda9f0a4820381d80d4a7542b8870]
reverse link PlayingGame to RoundManager--><path d="M1310.92,283.8981 C1280.4,305.9601 1246.53,330.4391 1215.57,352.8191 " fill="none" id="PlayingGame&lt;-RoundManager" style="stroke: #A80036; stroke-width: 1.0;"/><polygon fill="#A80036" points="1321.57,276.2021,1314.364,276.4747,1311.8441,283.2311,1319.0501,282.9586,1321.57,276.2021" style="stroke: #A80036; stroke-width: 1.0;"/><text fill="#000000" font-family="sans-serif" font-size="13" lengthAdjust="spacingAndGlyphs" textLength="8" x="1303.7886" y="295.9692">1</text><text fill="#000000" font-family="sans-serif" font-size="13" lengthAdjust="spacingAndGlyphs" textLength="8" x="1216.965" y="341.9954">1</text><!--MD5=[6bacf9c13db4ff7bb8bdeaf2dfca0637]
link Player to Character--><path d="M1366.91,477.5741 C1355.61,494.1311 1344.82,513.4161 1339,532.9531 C1334.08,549.4521 1339.82,565.5231 1349.68,579.6311 " fill="none" id="Player-Character" style="stroke: #A80036; stroke-width: 1.0;"/><text fill="#000000" font-family="sans-serif" font-size="13" lengthAdjust="spacingAndGlyphs" textLength="87" x="1340" y="546.02">realCharacter</text><text fill="#000000" font-family="sans-serif" font-size="13" lengthAdjust="spacingAndGlyphs" textLength="8" x="1352.7098" y="497.6676">1</text><text fill="#000000" font-family="sans-serif" font-size="13" lengthAdjust="spacingAndGlyphs" textLength="8" x="1333.5745" y="568.9896">1</text><!--MD5=[6bacf9c13db4ff7bb8bdeaf2dfca0637]
link Player to Character--><path d="M1425.3,477.6391 C1431.44,499.6431 1435.86,526.0231 1432,549.9531 C1430.42,559.7331 1427.81,569.9431 1424.83,579.6421 " fill="none" id="Player-Character-1" style="stroke: #A80036; stroke-width: 1.0;"/><text fill="#000000" font-family="sans-serif" font-size="13" lengthAdjust="spacingAndGlyphs" textLength="123" x="1435" y="546.02">forbidenCharacters</text><text fill="#000000" font-family="sans-serif" font-size="13" lengthAdjust="spacingAndGlyphs" textLength="8" x="1419.3109" y="497.7418">1</text><text fill="#000000" font-family="sans-serif" font-size="13" lengthAdjust="spacingAndGlyphs" textLength="7" x="1419.89" y="569.0021">*</text><!--MD5=[f491af095413a0a8fdc9048ffbec7782]
link PlayingGame to Player--><path d="M1407,276.2021 C1407,308.6761 1407,347.9181 1407,378.2241 " fill="none" id="PlayingGame-Player" style="stroke: #A80036; stroke-width: 1.0;"/><text fill="#000000" font-family="sans-serif" font-size="13" lengthAdjust="spacingAndGlyphs" textLength="8" x="1398.5625" y="295.9692">1</text><text fill="#000000" font-family="sans-serif" font-size="13" lengthAdjust="spacingAndGlyphs" textLength="24" x="1381.3125" y="367.2371">1..6</text><!--MD5=[d1f657984237d3519304bf2b37d726f4]
link Character to Character--><path d="M1591.38,616.7421 C1612.38,619.1221 1626,623.3591 1626,629.4531 C1626,635.0231 1614.62,639.0421 1596.62,641.5091 " fill="none" id="Character-&gt;Character" style="stroke: #A80036; stroke-width: 1.0;"/><polygon fill="#A80036" points="1591.38,642.1641,1600.8033,645.0279,1596.3421,641.5498,1599.8203,637.0886,1591.38,642.1641" style="stroke: #A80036; stroke-width: 1.0;"/><text fill="#000000" font-family="sans-serif" font-size="13" lengthAdjust="spacingAndGlyphs" textLength="53" x="1632" y="634.02">immune</text><text fill="#000000" font-family="sans-serif" font-size="13" lengthAdjust="spacingAndGlyphs" textLength="8" x="1598.7777" y="613.0178">1</text><text fill="#000000" font-family="sans-serif" font-size="13" lengthAdjust="spacingAndGlyphs" textLength="24" x="1599.0902" y="639.4329">0..1</text><!--MD5=[d303b185ae8104b4be5e9bfed8d90177]
@startuml
title Classes - Class Diagram

interface MessageHandler{
    +void processMessage(String username, String message)
}



class PlayingGame {
  -Game game
  -Map<String, Player> players
  +PlayingGame(Game game)
  +void start()
  +void reset()
  +void nextTurn()
}

class RoundManager {
    -ArrayList<Player> activePlayers
    -int position;
    +RoundManager(Collection<Player> players)
    +Player next()
    +Player getCurrentPlayer()
    +void removePlayer(Player player)
    +int getPlayerPosition(Player player)
    +int getNumberOfPlayer()
}

abstract Character {
    #String name
    +String getName()
    +boolean equals(String characterName)
    +void executePrivilege(int numPrivilege, PlayingGame game)
}

class Ex extends Character {
    +String getNom()
    +void executePrivilege(int numPrivilege, PlayingGame game)
}

class SonInLaw extends Character {
    +String getNom()
    +void executePrivilege(int numPrivilege, PlayingGame game)
}

class Lover extends Character {
    +String getNom()
    +void executePrivilege(int numPrivilege, PlayingGame game)
}

class DistantCousin extends Character {
    +String getNom()
    +void executePrivilege(int numPrivilege, PlayingGame game)
}

class Chef extends Character {
    +String getNom()
    +void executePrivilege(int numPrivilege, PlayingGame game)
}

class Gardener extends Character {
    +String getNom()
    +void executePrivilege(int numPrivilege, PlayingGame game)
}

class Butler extends Character {
    +String getNom()
    +void executePrivilege(int numPrivilege, PlayingGame game)
}

class Player {
 -User user
 +Player(User user, Character Character)
 +String getPseudo()
 +CharacterName getCharacterName()

}

class Vote {
 -int nbPlayers
 -int yesCount
 -int noCount
 -int timer
 +void start(int nbPlayers)
 +void voter(boolean isYes)
 +void close()
 +boolean isVoting()
}

PlayingGame"1"- -"1"Vote : vote

class PlayingGame implements MessageHandler

PlayingGame "1" *- - "1"RoundManager

Player "1"- -"1" Character : realCharacter
Player "1"- -"*" Character : forbidenCharacters

PlayingGame"1" - - "1..6"Player

Character"1"- -> "0..1"Character : immune
@enduml

PlantUML version 1.2020.11(Sat May 30 10:13:43 UTC 2020)
(GPL source distribution)
Java Runtime: Java(TM) SE Runtime Environment
JVM: Java HotSpot(TM) 64-Bit Server VM
Default Encoding: UTF-8
Language: en
Country: US
--></g></svg>